..................
----------------------------------------------------------------------
Ran 18 tests in 0.461s

OK
Name             Stmts   Miss Branch BrPart  Cover   Missing
------------------------------------------------------------
Collatz.py          46      0     22      0   100%
TestCollatz.py      76      0      0      0   100%
------------------------------------------------------------
TOTAL              122      0     22      0   100%
